^D:\KY5\OOP ( MONDAY )\OOP-LEARNING\TWO_DIMENSION_ARRAY\TWO_DIMENSION_ARRAY\SOURCE.CPP
/c /ZI /JMC /nologo /W3 /WX- /diagnostics:column /sdl /Od /Oy- /D _MBCS /Gm- /EHsc /RTC1 /MDd /GS /fp:precise /permissive- /Zc:wchar_t /Zc:forScope /Zc:inline /Fo"DEBUG\\" /Fd"DEBUG\VC142.PDB" /Gd /TP /analyze- /FC D:\KY5\OOP ( MONDAY )\OOP-LEARNING\TWO_DIMENSION_ARRAY\TWO_DIMENSION_ARRAY\SOURCE.CPP
^D:\SCHOOL\OOP-LEARNING\OOP-LEARNING\EXTERNC\15) ARRAY\TWO_DIMENSION_ARRAY\TWO_DIMENSION_ARRAY\SOURCE.CPP
/c /ZI /JMC /nologo /W3 /WX- /diagnostics:column /sdl /Od /Oy- /D _MBCS /Gm- /EHsc /RTC1 /MDd /GS /fp:precise /permissive- /Zc:wchar_t /Zc:forScope /Zc:inline /Fo"DEBUG\\" /Fd"DEBUG\VC142.PDB" /Gd /TP /analyze- /FC D:\SCHOOL\OOP-LEARNING\OOP-LEARNING\EXTERNC\15) ARRAY\TWO_DIMENSION_ARRAY\TWO_DIMENSION_ARRAY\SOURCE.CPP
