^D:\SCHOOL\OOP-LEARNING\OOP-LEARNING\EXTERNC\POINTER\POINTER\SOURCE.CPP
D:\SCHOOL\OOP-LEARNING\OOP-LEARNING\EXTERNC\POINTER\POINTER\DEBUG\VC142.PDB
D:\SCHOOL\OOP-LEARNING\OOP-LEARNING\EXTERNC\POINTER\POINTER\DEBUG\VC142.IDB
D:\SCHOOL\OOP-LEARNING\OOP-LEARNING\EXTERNC\POINTER\POINTER\DEBUG\SOURCE.OBJ
^D:\SCHOOL\OOP-LEARNING\OOP-LEARNING\EXTERNC\12) POINTER\POINTER\SOURCE.CPP
D:\SCHOOL\OOP-LEARNING\OOP-LEARNING\EXTERNC\12) POINTER\POINTER\DEBUG\VC142.PDB
D:\SCHOOL\OOP-LEARNING\OOP-LEARNING\EXTERNC\12) POINTER\POINTER\DEBUG\VC142.IDB
D:\SCHOOL\OOP-LEARNING\OOP-LEARNING\EXTERNC\12) POINTER\POINTER\DEBUG\SOURCE.OBJ
