^D:\SCHOOL\OOP-LEARNING\OOP-LEARNING\EXTERNC\SETWIDTH\SETWIDTH\DEBUG\SOURCE.OBJ
D:\SCHOOL\OOP-LEARNING\OOP-LEARNING\EXTERNC\SETWIDTH\DEBUG\SETWIDTH.ILK
D:\SCHOOL\OOP-LEARNING\OOP-LEARNING\EXTERNC\SETWIDTH\DEBUG\SETWIDTH.EXE
D:\SCHOOL\OOP-LEARNING\OOP-LEARNING\EXTERNC\SETWIDTH\DEBUG\SETWIDTH.PDB
