^D:\KY5\OOP ( MONDAY )\OOP-LEARNING\TRAINING\SEARCH\SEARCH\SOURCE.CPP
D:\KY5\OOP ( MONDAY )\OOP-LEARNING\TRAINING\SEARCH\SEARCH\DEBUG\VC142.PDB
D:\KY5\OOP ( MONDAY )\OOP-LEARNING\TRAINING\SEARCH\SEARCH\DEBUG\VC142.IDB
D:\KY5\OOP ( MONDAY )\OOP-LEARNING\TRAINING\SEARCH\SEARCH\DEBUG\SOURCE.OBJ
