^D:\KY5\OOP ( MONDAY )\OOP-LEARNING\CONSTRUCTOR AND DESTRUCTOR\CONSTRUCTOR AND DESTRUCTOR\DEBUG\CND.OBJ|D:\KY5\OOP ( MONDAY )\OOP-LEARNING\CONSTRUCTOR AND DESTRUCTOR\CONSTRUCTOR AND DESTRUCTOR\DEBUG\SOURCE.OBJ
D:\KY5\OOP ( MONDAY )\OOP-LEARNING\CONSTRUCTOR AND DESTRUCTOR\DEBUG\CONSTRUCTOR AND DESTRUCTOR.EXE
D:\KY5\OOP ( MONDAY )\OOP-LEARNING\CONSTRUCTOR AND DESTRUCTOR\DEBUG\CONSTRUCTOR AND DESTRUCTOR.ILK
D:\KY5\OOP ( MONDAY )\OOP-LEARNING\CONSTRUCTOR AND DESTRUCTOR\DEBUG\CONSTRUCTOR AND DESTRUCTOR.PDB
^D:\KY5\OOP ( MONDAY )\OOP-LEARNING\CLASS\CONSTRUCTOR AND DESTRUCTOR\CONSTRUCTOR AND DESTRUCTOR\DEBUG\CND.OBJ|D:\KY5\OOP ( MONDAY )\OOP-LEARNING\CLASS\CONSTRUCTOR AND DESTRUCTOR\CONSTRUCTOR AND DESTRUCTOR\DEBUG\SOURCE.OBJ
D:\KY5\OOP ( MONDAY )\OOP-LEARNING\CLASS\CONSTRUCTOR AND DESTRUCTOR\DEBUG\CONSTRUCTOR AND DESTRUCTOR.EXE
D:\KY5\OOP ( MONDAY )\OOP-LEARNING\CLASS\CONSTRUCTOR AND DESTRUCTOR\DEBUG\CONSTRUCTOR AND DESTRUCTOR.ILK
D:\KY5\OOP ( MONDAY )\OOP-LEARNING\CLASS\CONSTRUCTOR AND DESTRUCTOR\DEBUG\CONSTRUCTOR AND DESTRUCTOR.PDB
