^D:\SCHOOL\OOP-LEARNING\OOP-LEARNING\EXTERNC\REFERENCEINFUNCTION\REFERENCEINFUNCTION\DEBUG\SOURCE.OBJ
D:\SCHOOL\OOP-LEARNING\OOP-LEARNING\EXTERNC\REFERENCEINFUNCTION\DEBUG\REFERENCEINFUNCTION.EXE
D:\SCHOOL\OOP-LEARNING\OOP-LEARNING\EXTERNC\REFERENCEINFUNCTION\DEBUG\REFERENCEINFUNCTION.ILK
D:\SCHOOL\OOP-LEARNING\OOP-LEARNING\EXTERNC\REFERENCEINFUNCTION\DEBUG\REFERENCEINFUNCTION.PDB
