^D:\SCHOOL\OOP-LEARNING\OOP-LEARNING\EXTERNC\ENUM\ENUM\DEBUG\SOURCE.OBJ
D:\SCHOOL\OOP-LEARNING\OOP-LEARNING\EXTERNC\ENUM\DEBUG\ENUM.EXE
D:\SCHOOL\OOP-LEARNING\OOP-LEARNING\EXTERNC\ENUM\DEBUG\ENUM.ILK
D:\SCHOOL\OOP-LEARNING\OOP-LEARNING\EXTERNC\ENUM\DEBUG\ENUM.PDB
^D:\SCHOOL\OOP-LEARNING\OOP-LEARNING\EXTERNC\1) ENUM\ENUM\DEBUG\SOURCE.OBJ
D:\SCHOOL\OOP-LEARNING\OOP-LEARNING\EXTERNC\1) ENUM\DEBUG\ENUM.EXE
D:\SCHOOL\OOP-LEARNING\OOP-LEARNING\EXTERNC\1) ENUM\DEBUG\ENUM.ILK
D:\SCHOOL\OOP-LEARNING\OOP-LEARNING\EXTERNC\1) ENUM\DEBUG\ENUM.PDB
