^D:\KY5\OOP ( MONDAY )\OOP-LEARNING\OOP-MONDAY-5\OOP-MONDAY-5\DEBUG\SOURCE.OBJ
D:\KY5\OOP ( MONDAY )\OOP-LEARNING\OOP-MONDAY-5\DEBUG\OOP-MONDAY-5.EXE
D:\KY5\OOP ( MONDAY )\OOP-LEARNING\OOP-MONDAY-5\DEBUG\OOP-MONDAY-5.ILK
D:\KY5\OOP ( MONDAY )\OOP-LEARNING\OOP-MONDAY-5\DEBUG\OOP-MONDAY-5.PDB
