^D:\SCHOOL\OOP-LEARNING\OOP-LEARNING\EXTERNC\14) CONSTCAST\CONSTCAST\DEBUG\SOURCE.OBJ
D:\SCHOOL\OOP-LEARNING\OOP-LEARNING\EXTERNC\14) CONSTCAST\DEBUG\CONSTCAST.EXE
D:\SCHOOL\OOP-LEARNING\OOP-LEARNING\EXTERNC\14) CONSTCAST\DEBUG\CONSTCAST.ILK
D:\SCHOOL\OOP-LEARNING\OOP-LEARNING\EXTERNC\14) CONSTCAST\DEBUG\CONSTCAST.PDB
