^D:\SCHOOL\OOP-LEARNING\OOP-LEARNING\EXTERNC\FUNCTIONRETURNREFERENCE-P2\FUNCTIONRETURNREFERENCE-P2\SOURCE.CPP
D:\SCHOOL\OOP-LEARNING\OOP-LEARNING\EXTERNC\FUNCTIONRETURNREFERENCE-P2\FUNCTIONRETURNREFERENCE-P2\DEBUG\VC142.PDB
D:\SCHOOL\OOP-LEARNING\OOP-LEARNING\EXTERNC\FUNCTIONRETURNREFERENCE-P2\FUNCTIONRETURNREFERENCE-P2\DEBUG\VC142.IDB
D:\SCHOOL\OOP-LEARNING\OOP-LEARNING\EXTERNC\FUNCTIONRETURNREFERENCE-P2\FUNCTIONRETURNREFERENCE-P2\DEBUG\SOURCE.OBJ
