^D:\SCHOOL\OOP-LEARNING\OOP-LEARNING\EXTERNC\FUNCTIONRETURNREFERENCE-P2\FUNCTIONRETURNREFERENCE-P2\DEBUG\SOURCE.OBJ
D:\SCHOOL\OOP-LEARNING\OOP-LEARNING\EXTERNC\FUNCTIONRETURNREFERENCE-P2\DEBUG\FUNCTIONRETURNREFERENCE-P2.EXE
D:\SCHOOL\OOP-LEARNING\OOP-LEARNING\EXTERNC\FUNCTIONRETURNREFERENCE-P2\DEBUG\FUNCTIONRETURNREFERENCE-P2.ILK
D:\SCHOOL\OOP-LEARNING\OOP-LEARNING\EXTERNC\FUNCTIONRETURNREFERENCE-P2\DEBUG\FUNCTIONRETURNREFERENCE-P2.PDB
