^D:\SCHOOL\OOP-LEARNING\OOP-LEARNING\EXTERNC\FUNCTIONRETURNREFERENCE-P2\FUNCTIONRETURNREFERENCE-P2\DEBUG\SOURCE.OBJ
D:\WINDOWS KITS\10\LIB\10.0.18362.0\UM\X86\KERNEL32.LIB
D:\WINDOWS KITS\10\LIB\10.0.18362.0\UM\X86\USER32.LIB
D:\WINDOWS KITS\10\LIB\10.0.18362.0\UM\X86\GDI32.LIB
D:\WINDOWS KITS\10\LIB\10.0.18362.0\UM\X86\WINSPOOL.LIB
D:\WINDOWS KITS\10\LIB\10.0.18362.0\UM\X86\COMDLG32.LIB
D:\WINDOWS KITS\10\LIB\10.0.18362.0\UM\X86\ADVAPI32.LIB
D:\WINDOWS KITS\10\LIB\10.0.18362.0\UM\X86\SHELL32.LIB
D:\WINDOWS KITS\10\LIB\10.0.18362.0\UM\X86\OLE32.LIB
D:\WINDOWS KITS\10\LIB\10.0.18362.0\UM\X86\OLEAUT32.LIB
D:\WINDOWS KITS\10\LIB\10.0.18362.0\UM\X86\UUID.LIB
D:\WINDOWS KITS\10\LIB\10.0.18362.0\UM\X86\ODBC32.LIB
D:\WINDOWS KITS\10\LIB\10.0.18362.0\UM\X86\ODBCCP32.LIB
D:\SCHOOL\OOP-LEARNING\OOP-LEARNING\EXTERNC\FUNCTIONRETURNREFERENCE-P2\FUNCTIONRETURNREFERENCE-P2\DEBUG\SOURCE.OBJ
C:\WINDOWS\SYSTEM32\TZRES.DLL
C:\WINDOWS\GLOBALIZATION\SORTING\SORTDEFAULT.NLS
D:\CODING\VISUAL STUDIO\VC\TOOLS\MSVC\14.24.28314\LIB\X86\MSVCPRTD.LIB
D:\CODING\VISUAL STUDIO\VC\TOOLS\MSVC\14.24.28314\LIB\X86\MSVCRTD.LIB
D:\CODING\VISUAL STUDIO\VC\TOOLS\MSVC\14.24.28314\LIB\X86\OLDNAMES.LIB
D:\CODING\VISUAL STUDIO\VC\TOOLS\MSVC\14.24.28314\LIB\X86\VCRUNTIMED.LIB
D:\WINDOWS KITS\10\LIB\10.0.18362.0\UCRT\X86\UCRTD.LIB
