^D:\KY5\OOP ( MONDAY )\OOP-LEARNING\TRAINING\POINT2DLEARNING\POINT2DLEARNING\POINT2D.CPP
/c /ZI /JMC /nologo /W3 /WX- /diagnostics:column /sdl /Od /Oy- /D _MBCS /Gm- /EHsc /RTC1 /MDd /GS /fp:precise /permissive- /Zc:wchar_t /Zc:forScope /Zc:inline /Fo"DEBUG\\" /Fd"DEBUG\VC142.PDB" /Gd /TP /analyze- /FC D:\KY5\OOP ( MONDAY )\OOP-LEARNING\TRAINING\POINT2DLEARNING\POINT2DLEARNING\POINT2D.CPP
^D:\KY5\OOP ( MONDAY )\OOP-LEARNING\TRAINING\POINT2DLEARNING\POINT2DLEARNING\SOURCE.CPP
/c /ZI /JMC /nologo /W3 /WX- /diagnostics:column /sdl /Od /Oy- /D _MBCS /Gm- /EHsc /RTC1 /MDd /GS /fp:precise /permissive- /Zc:wchar_t /Zc:forScope /Zc:inline /Fo"DEBUG\\" /Fd"DEBUG\VC142.PDB" /Gd /TP /analyze- /FC D:\KY5\OOP ( MONDAY )\OOP-LEARNING\TRAINING\POINT2DLEARNING\POINT2DLEARNING\SOURCE.CPP
