^D:\KY5\OOP ( MONDAY )\OOP-LEARNING\TRAINING\POINT2DLEARNING\POINT2DLEARNING\DEBUG\POINT2D.OBJ|D:\KY5\OOP ( MONDAY )\OOP-LEARNING\TRAINING\POINT2DLEARNING\POINT2DLEARNING\DEBUG\SOURCE.OBJ
D:\KY5\OOP ( MONDAY )\OOP-LEARNING\TRAINING\POINT2DLEARNING\DEBUG\POINT2DLEARNING.EXE
D:\KY5\OOP ( MONDAY )\OOP-LEARNING\TRAINING\POINT2DLEARNING\DEBUG\POINT2DLEARNING.ILK
D:\KY5\OOP ( MONDAY )\OOP-LEARNING\TRAINING\POINT2DLEARNING\DEBUG\POINT2DLEARNING.PDB
