^D:\KY5\OOP ( MONDAY )\LINKEDLIST\LINKEDLIST\LINKEDLIST\LIST.CPP
/c /ZI /JMC /nologo /W3 /WX- /diagnostics:column /sdl /Od /Oy- /D _MBCS /Gm- /EHsc /RTC1 /MDd /GS /fp:precise /permissive- /Zc:wchar_t /Zc:forScope /Zc:inline /Fo"DEBUG\\" /Fd"DEBUG\VC142.PDB" /Gd /TP /analyze- /FC D:\KY5\OOP ( MONDAY )\LINKEDLIST\LINKEDLIST\LINKEDLIST\LIST.CPP
^D:\KY5\OOP ( MONDAY )\LINKEDLIST\LINKEDLIST\LINKEDLIST\NODE.CPP
/c /ZI /JMC /nologo /W3 /WX- /diagnostics:column /sdl /Od /Oy- /D _MBCS /Gm- /EHsc /RTC1 /MDd /GS /fp:precise /permissive- /Zc:wchar_t /Zc:forScope /Zc:inline /Fo"DEBUG\\" /Fd"DEBUG\VC142.PDB" /Gd /TP /analyze- /FC D:\KY5\OOP ( MONDAY )\LINKEDLIST\LINKEDLIST\LINKEDLIST\NODE.CPP
^D:\KY5\OOP ( MONDAY )\LINKEDLIST\LINKEDLIST\LINKEDLIST\SOURCE.CPP
/c /ZI /JMC /nologo /W3 /WX- /diagnostics:column /sdl /Od /Oy- /D _MBCS /Gm- /EHsc /RTC1 /MDd /GS /fp:precise /permissive- /Zc:wchar_t /Zc:forScope /Zc:inline /Fo"DEBUG\\" /Fd"DEBUG\VC142.PDB" /Gd /TP /analyze- /FC D:\KY5\OOP ( MONDAY )\LINKEDLIST\LINKEDLIST\LINKEDLIST\SOURCE.CPP
