^D:\KY5\OOP ( MONDAY )\LINKEDLIST\LINKEDLIST\LINKEDLIST\LIST.CPP|D:\KY5\OOP ( MONDAY )\LINKEDLIST\LINKEDLIST\LINKEDLIST\SOURCE.CPP
D:\KY5\OOP ( MONDAY )\LINKEDLIST\LINKEDLIST\LINKEDLIST\DEBUG\VC142.PDB
D:\KY5\OOP ( MONDAY )\LINKEDLIST\LINKEDLIST\LINKEDLIST\DEBUG\VC142.IDB
D:\KY5\OOP ( MONDAY )\LINKEDLIST\LINKEDLIST\LINKEDLIST\DEBUG\SOURCE.OBJ
D:\KY5\OOP ( MONDAY )\LINKEDLIST\LINKEDLIST\LINKEDLIST\DEBUG\LIST.OBJ
^D:\KY5\OOP ( MONDAY )\LINKEDLIST\LINKEDLIST\LINKEDLIST\LIST.CPP|D:\KY5\OOP ( MONDAY )\LINKEDLIST\LINKEDLIST\LINKEDLIST\NODE.CPP|D:\KY5\OOP ( MONDAY )\LINKEDLIST\LINKEDLIST\LINKEDLIST\SOURCE.CPP
D:\KY5\OOP ( MONDAY )\LINKEDLIST\LINKEDLIST\LINKEDLIST\DEBUG\VC142.PDB
D:\KY5\OOP ( MONDAY )\LINKEDLIST\LINKEDLIST\LINKEDLIST\DEBUG\VC142.IDB
D:\KY5\OOP ( MONDAY )\LINKEDLIST\LINKEDLIST\LINKEDLIST\DEBUG\SOURCE.OBJ
D:\KY5\OOP ( MONDAY )\LINKEDLIST\LINKEDLIST\LINKEDLIST\DEBUG\LIST.OBJ
^D:\KY5\OOP ( MONDAY )\LINKEDLIST\LINKEDLIST\LINKEDLIST\LIST.CPP
D:\KY5\OOP ( MONDAY )\LINKEDLIST\LINKEDLIST\LINKEDLIST\DEBUG\LIST.OBJ
^D:\KY5\OOP ( MONDAY )\LINKEDLIST\LINKEDLIST\LINKEDLIST\NODE.CPP|D:\KY5\OOP ( MONDAY )\LINKEDLIST\LINKEDLIST\LINKEDLIST\SOURCE.CPP
D:\KY5\OOP ( MONDAY )\LINKEDLIST\LINKEDLIST\LINKEDLIST\DEBUG\VC142.PDB
D:\KY5\OOP ( MONDAY )\LINKEDLIST\LINKEDLIST\LINKEDLIST\DEBUG\VC142.IDB
D:\KY5\OOP ( MONDAY )\LINKEDLIST\LINKEDLIST\LINKEDLIST\DEBUG\SOURCE.OBJ
D:\KY5\OOP ( MONDAY )\LINKEDLIST\LINKEDLIST\LINKEDLIST\DEBUG\NODE.OBJ
^D:\KY5\OOP ( MONDAY )\LINKEDLIST\LINKEDLIST\LINKEDLIST\NODE.CPP
D:\KY5\OOP ( MONDAY )\LINKEDLIST\LINKEDLIST\LINKEDLIST\DEBUG\VC142.PDB
^D:\KY5\OOP ( MONDAY )\LINKEDLIST\LINKEDLIST\LINKEDLIST\SOURCE.CPP
D:\KY5\OOP ( MONDAY )\LINKEDLIST\LINKEDLIST\LINKEDLIST\DEBUG\VC142.PDB
