^D:\SCHOOL\OOP-LEARNING\OOP-LEARNING\TESTING_PROJECT\TESTING_PROJECT\SOURCE.CPP
D:\CODING\VISUAL STUDIO\VC\TOOLS\MSVC\14.24.28314\BIN\HOSTX86\X86\1033\CLUI.DLL
C:\WINDOWS\GLOBALIZATION\SORTING\SORTDEFAULT.NLS
C:\WINDOWS\SYSTEM32\TZRES.DLL
D:\CODING\VISUAL STUDIO\VC\TOOLS\MSVC\14.24.28314\INCLUDE\IOSTREAM
D:\CODING\VISUAL STUDIO\VC\TOOLS\MSVC\14.24.28314\INCLUDE\YVALS_CORE.H
D:\CODING\VISUAL STUDIO\VC\TOOLS\MSVC\14.24.28314\INCLUDE\VCRUNTIME.H
D:\CODING\VISUAL STUDIO\VC\TOOLS\MSVC\14.24.28314\INCLUDE\SAL.H
D:\CODING\VISUAL STUDIO\VC\TOOLS\MSVC\14.24.28314\INCLUDE\CONCURRENCYSAL.H
D:\CODING\VISUAL STUDIO\VC\TOOLS\MSVC\14.24.28314\INCLUDE\VADEFS.H
D:\CODING\VISUAL STUDIO\VC\TOOLS\MSVC\14.24.28314\INCLUDE\XKEYCHECK.H
D:\CODING\VISUAL STUDIO\VC\TOOLS\MSVC\14.24.28314\INCLUDE\ISTREAM
D:\CODING\VISUAL STUDIO\VC\TOOLS\MSVC\14.24.28314\INCLUDE\OSTREAM
D:\CODING\VISUAL STUDIO\VC\TOOLS\MSVC\14.24.28314\INCLUDE\IOS
D:\CODING\VISUAL STUDIO\VC\TOOLS\MSVC\14.24.28314\INCLUDE\XLOCNUM
D:\CODING\VISUAL STUDIO\VC\TOOLS\MSVC\14.24.28314\INCLUDE\CLIMITS
D:\CODING\VISUAL STUDIO\VC\TOOLS\MSVC\14.24.28314\INCLUDE\LIMITS.H
D:\CODING\VISUAL STUDIO\VC\TOOLS\MSVC\14.24.28314\INCLUDE\CMATH
D:\CODING\VISUAL STUDIO\VC\TOOLS\MSVC\14.24.28314\INCLUDE\YVALS.H
D:\WINDOWS KITS\10\INCLUDE\10.0.18362.0\UCRT\CRTDBG.H
D:\WINDOWS KITS\10\INCLUDE\10.0.18362.0\UCRT\CORECRT.H
D:\CODING\VISUAL STUDIO\VC\TOOLS\MSVC\14.24.28314\INCLUDE\VCRUNTIME_NEW_DEBUG.H
D:\CODING\VISUAL STUDIO\VC\TOOLS\MSVC\14.24.28314\INCLUDE\VCRUNTIME_NEW.H
D:\CODING\VISUAL STUDIO\VC\TOOLS\MSVC\14.24.28314\INCLUDE\CRTDEFS.H
D:\CODING\VISUAL STUDIO\VC\TOOLS\MSVC\14.24.28314\INCLUDE\USE_ANSI.H
D:\CODING\VISUAL STUDIO\VC\TOOLS\MSVC\14.24.28314\INCLUDE\CSTDLIB
D:\WINDOWS KITS\10\INCLUDE\10.0.18362.0\UCRT\MATH.H
D:\WINDOWS KITS\10\INCLUDE\10.0.18362.0\UCRT\CORECRT_MATH.H
D:\WINDOWS KITS\10\INCLUDE\10.0.18362.0\UCRT\STDLIB.H
D:\WINDOWS KITS\10\INCLUDE\10.0.18362.0\UCRT\CORECRT_MALLOC.H
D:\WINDOWS KITS\10\INCLUDE\10.0.18362.0\UCRT\CORECRT_SEARCH.H
D:\WINDOWS KITS\10\INCLUDE\10.0.18362.0\UCRT\STDDEF.H
D:\WINDOWS KITS\10\INCLUDE\10.0.18362.0\UCRT\CORECRT_WSTDLIB.H
D:\CODING\VISUAL STUDIO\VC\TOOLS\MSVC\14.24.28314\INCLUDE\XTGMATH.H
D:\CODING\VISUAL STUDIO\VC\TOOLS\MSVC\14.24.28314\INCLUDE\XTR1COMMON
D:\CODING\VISUAL STUDIO\VC\TOOLS\MSVC\14.24.28314\INCLUDE\CSTDIO
D:\WINDOWS KITS\10\INCLUDE\10.0.18362.0\UCRT\STDIO.H
D:\WINDOWS KITS\10\INCLUDE\10.0.18362.0\UCRT\CORECRT_WSTDIO.H
D:\WINDOWS KITS\10\INCLUDE\10.0.18362.0\UCRT\CORECRT_STDIO_CONFIG.H
D:\CODING\VISUAL STUDIO\VC\TOOLS\MSVC\14.24.28314\INCLUDE\STREAMBUF
D:\CODING\VISUAL STUDIO\VC\TOOLS\MSVC\14.24.28314\INCLUDE\XIOSBASE
D:\WINDOWS KITS\10\INCLUDE\10.0.18362.0\UCRT\SHARE.H
D:\WINDOWS KITS\10\INCLUDE\10.0.18362.0\UCRT\CORECRT_SHARE.H
D:\CODING\VISUAL STUDIO\VC\TOOLS\MSVC\14.24.28314\INCLUDE\SYSTEM_ERROR
D:\CODING\VISUAL STUDIO\VC\TOOLS\MSVC\14.24.28314\INCLUDE\CERRNO
D:\WINDOWS KITS\10\INCLUDE\10.0.18362.0\UCRT\ERRNO.H
D:\CODING\VISUAL STUDIO\VC\TOOLS\MSVC\14.24.28314\INCLUDE\STDEXCEPT
D:\CODING\VISUAL STUDIO\VC\TOOLS\MSVC\14.24.28314\INCLUDE\EXCEPTION
D:\CODING\VISUAL STUDIO\VC\TOOLS\MSVC\14.24.28314\INCLUDE\TYPE_TRAITS
D:\CODING\VISUAL STUDIO\VC\TOOLS\MSVC\14.24.28314\INCLUDE\XSTDDEF
D:\CODING\VISUAL STUDIO\VC\TOOLS\MSVC\14.24.28314\INCLUDE\CSTDDEF
D:\CODING\VISUAL STUDIO\VC\TOOLS\MSVC\14.24.28314\INCLUDE\INITIALIZER_LIST
D:\WINDOWS KITS\10\INCLUDE\10.0.18362.0\UCRT\MALLOC.H
D:\CODING\VISUAL STUDIO\VC\TOOLS\MSVC\14.24.28314\INCLUDE\VCRUNTIME_EXCEPTION.H
D:\CODING\VISUAL STUDIO\VC\TOOLS\MSVC\14.24.28314\INCLUDE\EH.H
D:\WINDOWS KITS\10\INCLUDE\10.0.18362.0\UCRT\CORECRT_TERMINATE.H
D:\CODING\VISUAL STUDIO\VC\TOOLS\MSVC\14.24.28314\INCLUDE\XSTRING
D:\CODING\VISUAL STUDIO\VC\TOOLS\MSVC\14.24.28314\INCLUDE\IOSFWD
D:\CODING\VISUAL STUDIO\VC\TOOLS\MSVC\14.24.28314\INCLUDE\CSTRING
D:\WINDOWS KITS\10\INCLUDE\10.0.18362.0\UCRT\STRING.H
D:\WINDOWS KITS\10\INCLUDE\10.0.18362.0\UCRT\CORECRT_MEMORY.H
D:\WINDOWS KITS\10\INCLUDE\10.0.18362.0\UCRT\CORECRT_MEMCPY_S.H
D:\CODING\VISUAL STUDIO\VC\TOOLS\MSVC\14.24.28314\INCLUDE\VCRUNTIME_STRING.H
D:\WINDOWS KITS\10\INCLUDE\10.0.18362.0\UCRT\CORECRT_WSTRING.H
D:\CODING\VISUAL STUDIO\VC\TOOLS\MSVC\14.24.28314\INCLUDE\CWCHAR
D:\WINDOWS KITS\10\INCLUDE\10.0.18362.0\UCRT\WCHAR.H
D:\WINDOWS KITS\10\INCLUDE\10.0.18362.0\UCRT\CORECRT_WCONIO.H
D:\WINDOWS KITS\10\INCLUDE\10.0.18362.0\UCRT\CORECRT_WCTYPE.H
D:\WINDOWS KITS\10\INCLUDE\10.0.18362.0\UCRT\CORECRT_WDIRECT.H
D:\WINDOWS KITS\10\INCLUDE\10.0.18362.0\UCRT\CORECRT_WIO.H
D:\WINDOWS KITS\10\INCLUDE\10.0.18362.0\UCRT\CORECRT_WPROCESS.H
D:\WINDOWS KITS\10\INCLUDE\10.0.18362.0\UCRT\CORECRT_WTIME.H
D:\WINDOWS KITS\10\INCLUDE\10.0.18362.0\UCRT\SYS\STAT.H
D:\WINDOWS KITS\10\INCLUDE\10.0.18362.0\UCRT\SYS\TYPES.H
D:\CODING\VISUAL STUDIO\VC\TOOLS\MSVC\14.24.28314\INCLUDE\XMEMORY
D:\CODING\VISUAL STUDIO\VC\TOOLS\MSVC\14.24.28314\INCLUDE\CSTDINT
D:\CODING\VISUAL STUDIO\VC\TOOLS\MSVC\14.24.28314\INCLUDE\STDINT.H
D:\CODING\VISUAL STUDIO\VC\TOOLS\MSVC\14.24.28314\INCLUDE\LIMITS
D:\CODING\VISUAL STUDIO\VC\TOOLS\MSVC\14.24.28314\INCLUDE\CFLOAT
D:\WINDOWS KITS\10\INCLUDE\10.0.18362.0\UCRT\FLOAT.H
D:\CODING\VISUAL STUDIO\VC\TOOLS\MSVC\14.24.28314\INCLUDE\NEW
D:\CODING\VISUAL STUDIO\VC\TOOLS\MSVC\14.24.28314\INCLUDE\XATOMIC.H
D:\CODING\VISUAL STUDIO\VC\TOOLS\MSVC\14.24.28314\INCLUDE\INTRIN0.H
D:\CODING\VISUAL STUDIO\VC\TOOLS\MSVC\14.24.28314\INCLUDE\XUTILITY
D:\CODING\VISUAL STUDIO\VC\TOOLS\MSVC\14.24.28314\INCLUDE\UTILITY
D:\CODING\VISUAL STUDIO\VC\TOOLS\MSVC\14.24.28314\INCLUDE\XCALL_ONCE.H
D:\CODING\VISUAL STUDIO\VC\TOOLS\MSVC\14.24.28314\INCLUDE\XERRC.H
D:\CODING\VISUAL STUDIO\VC\TOOLS\MSVC\14.24.28314\INCLUDE\XLOCALE
D:\CODING\VISUAL STUDIO\VC\TOOLS\MSVC\14.24.28314\INCLUDE\MEMORY
D:\CODING\VISUAL STUDIO\VC\TOOLS\MSVC\14.24.28314\INCLUDE\TYPEINFO
D:\CODING\VISUAL STUDIO\VC\TOOLS\MSVC\14.24.28314\INCLUDE\VCRUNTIME_TYPEINFO.H
D:\CODING\VISUAL STUDIO\VC\TOOLS\MSVC\14.24.28314\INCLUDE\XFACET
D:\CODING\VISUAL STUDIO\VC\TOOLS\MSVC\14.24.28314\INCLUDE\XLOCINFO
D:\CODING\VISUAL STUDIO\VC\TOOLS\MSVC\14.24.28314\INCLUDE\XLOCINFO.H
D:\WINDOWS KITS\10\INCLUDE\10.0.18362.0\UCRT\CTYPE.H
D:\WINDOWS KITS\10\INCLUDE\10.0.18362.0\UCRT\LOCALE.H
