^D:\KY5\OOP ( MONDAY )\OOP-LEARNING\OVERLOADING OPERATOR\OVERLOADING OPERATOR\POINT2D.CPP|D:\KY5\OOP ( MONDAY )\OOP-LEARNING\OVERLOADING OPERATOR\OVERLOADING OPERATOR\SOURCE.CPP
D:\KY5\OOP ( MONDAY )\OOP-LEARNING\OVERLOADING OPERATOR\OVERLOADING OPERATOR\DEBUG\VC142.PDB
D:\KY5\OOP ( MONDAY )\OOP-LEARNING\OVERLOADING OPERATOR\OVERLOADING OPERATOR\DEBUG\VC142.IDB
D:\KY5\OOP ( MONDAY )\OOP-LEARNING\OVERLOADING OPERATOR\OVERLOADING OPERATOR\DEBUG\SOURCE.OBJ
D:\KY5\OOP ( MONDAY )\OOP-LEARNING\OVERLOADING OPERATOR\OVERLOADING OPERATOR\DEBUG\POINT2D.OBJ
^D:\KY5\OOP ( MONDAY )\OOP-LEARNING\OVERLOADING OPERATOR\OVERLOADING OPERATOR\POINT2D.CPP
D:\KY5\OOP ( MONDAY )\OOP-LEARNING\OVERLOADING OPERATOR\OVERLOADING OPERATOR\DEBUG\VC142.PDB
^D:\KY5\OOP ( MONDAY )\OOP-LEARNING\OVERLOADING OPERATOR\OVERLOADING OPERATOR\SOURCE.CPP
D:\KY5\OOP ( MONDAY )\OOP-LEARNING\OVERLOADING OPERATOR\OVERLOADING OPERATOR\DEBUG\VC142.PDB
D:\KY5\OOP ( MONDAY )\OOP-LEARNING\OVERLOADING OPERATOR\OVERLOADING OPERATOR\DEBUG\VC142.IDB
D:\KY5\OOP ( MONDAY )\OOP-LEARNING\OVERLOADING OPERATOR\OVERLOADING OPERATOR\DEBUG\SOURCE.OBJ
^D:\SCHOOL\OOP-LEARNING\OOP-LEARNING\3) OVERLOADING OPERATOR\OVERLOADING OPERATOR\POINT2D.CPP|D:\SCHOOL\OOP-LEARNING\OOP-LEARNING\3) OVERLOADING OPERATOR\OVERLOADING OPERATOR\SOURCE.CPP
D:\SCHOOL\OOP-LEARNING\OOP-LEARNING\3) OVERLOADING OPERATOR\OVERLOADING OPERATOR\DEBUG\VC142.PDB
D:\SCHOOL\OOP-LEARNING\OOP-LEARNING\3) OVERLOADING OPERATOR\OVERLOADING OPERATOR\DEBUG\VC142.IDB
D:\SCHOOL\OOP-LEARNING\OOP-LEARNING\3) OVERLOADING OPERATOR\OVERLOADING OPERATOR\DEBUG\SOURCE.OBJ
D:\SCHOOL\OOP-LEARNING\OOP-LEARNING\3) OVERLOADING OPERATOR\OVERLOADING OPERATOR\DEBUG\POINT2D.OBJ
^D:\SCHOOL\OOP-LEARNING\OOP-LEARNING\3) OVERLOADING OPERATOR\OVERLOADING OPERATOR\POINT2D.CPP
D:\SCHOOL\OOP-LEARNING\OOP-LEARNING\3) OVERLOADING OPERATOR\OVERLOADING OPERATOR\DEBUG\VC142.PDB
^D:\SCHOOL\OOP-LEARNING\OOP-LEARNING\3) OVERLOADING OPERATOR\OVERLOADING OPERATOR\SOURCE.CPP
D:\SCHOOL\OOP-LEARNING\OOP-LEARNING\3) OVERLOADING OPERATOR\OVERLOADING OPERATOR\DEBUG\VC142.PDB
