^D:\SCHOOL\OOP-LEARNING\OOP-LEARNING\EXTERNC\NGUYENMAUHAM\NGUYENMAUHAM\SOURCE.CPP
D:\SCHOOL\OOP-LEARNING\OOP-LEARNING\EXTERNC\NGUYENMAUHAM\NGUYENMAUHAM\DEBUG\VC142.PDB
D:\SCHOOL\OOP-LEARNING\OOP-LEARNING\EXTERNC\NGUYENMAUHAM\NGUYENMAUHAM\DEBUG\VC142.IDB
D:\SCHOOL\OOP-LEARNING\OOP-LEARNING\EXTERNC\NGUYENMAUHAM\NGUYENMAUHAM\DEBUG\SOURCE.OBJ
