^D:\KY5\OOP ( MONDAY )\OOP-LEARNING\POINT2D\POINT2D\DEBUG\POINT2D.OBJ|D:\KY5\OOP ( MONDAY )\OOP-LEARNING\POINT2D\POINT2D\DEBUG\SOURCE.OBJ
D:\KY5\OOP ( MONDAY )\OOP-LEARNING\POINT2D\DEBUG\POINT2D.EXE
D:\KY5\OOP ( MONDAY )\OOP-LEARNING\POINT2D\DEBUG\POINT2D.ILK
D:\KY5\OOP ( MONDAY )\OOP-LEARNING\POINT2D\DEBUG\POINT2D.PDB
^D:\SCHOOL\OOP-LEARNING\OOP-LEARNING\CLASS\POINT2D\POINT2D\DEBUG\POINT2D.OBJ|D:\SCHOOL\OOP-LEARNING\OOP-LEARNING\CLASS\POINT2D\POINT2D\DEBUG\SOURCE.OBJ
D:\SCHOOL\OOP-LEARNING\OOP-LEARNING\CLASS\POINT2D\DEBUG\POINT2D.ILK
D:\SCHOOL\OOP-LEARNING\OOP-LEARNING\CLASS\POINT2D\DEBUG\POINT2D.EXE
D:\SCHOOL\OOP-LEARNING\OOP-LEARNING\CLASS\POINT2D\DEBUG\POINT2D.PDB
