^D:\KY5\OOP ( MONDAY )\OOP-LEARNING\POINT2D\POINT2D\DEBUG\SOURCE.OBJ
/OUT:"D:\KY5\OOP ( MONDAY )\OOP-LEARNING\POINT2D\DEBUG\POINT2D.EXE" /INCREMENTAL /NOLOGO KERNEL32.LIB USER32.LIB GDI32.LIB WINSPOOL.LIB COMDLG32.LIB ADVAPI32.LIB SHELL32.LIB OLE32.LIB OLEAUT32.LIB UUID.LIB ODBC32.LIB ODBCCP32.LIB /MANIFEST /MANIFESTUAC:"level='asInvoker' uiAccess='false'" /manifest:embed /DEBUG:FASTLINK /PDB:"D:\KY5\OOP ( MONDAY )\OOP-LEARNING\POINT2D\DEBUG\POINT2D.PDB" /SUBSYSTEM:CONSOLE /TLBID:1 /DYNAMICBASE /NXCOMPAT /IMPLIB:"D:\KY5\OOP ( MONDAY )\OOP-LEARNING\POINT2D\DEBUG\POINT2D.LIB" /MACHINE:X86 DEBUG\SOURCE.OBJ
^D:\KY5\OOP ( MONDAY )\OOP-LEARNING\POINT2D\POINT2D\DEBUG\POINT2D.OBJ|D:\KY5\OOP ( MONDAY )\OOP-LEARNING\POINT2D\POINT2D\DEBUG\SOURCE.OBJ
/OUT:"D:\KY5\OOP ( MONDAY )\OOP-LEARNING\POINT2D\DEBUG\POINT2D.EXE" /INCREMENTAL /NOLOGO KERNEL32.LIB USER32.LIB GDI32.LIB WINSPOOL.LIB COMDLG32.LIB ADVAPI32.LIB SHELL32.LIB OLE32.LIB OLEAUT32.LIB UUID.LIB ODBC32.LIB ODBCCP32.LIB /MANIFEST /MANIFESTUAC:"level='asInvoker' uiAccess='false'" /manifest:embed /DEBUG:FASTLINK /PDB:"D:\KY5\OOP ( MONDAY )\OOP-LEARNING\POINT2D\DEBUG\POINT2D.PDB" /SUBSYSTEM:CONSOLE /TLBID:1 /DYNAMICBASE /NXCOMPAT /IMPLIB:"D:\KY5\OOP ( MONDAY )\OOP-LEARNING\POINT2D\DEBUG\POINT2D.LIB" /MACHINE:X86 DEBUG\POINT2D.OBJDEBUG\SOURCE.OBJ
^D:\SCHOOL\OOP-LEARNING\OOP-LEARNING\CLASS\POINT2D\POINT2D\DEBUG\POINT2D.OBJ|D:\SCHOOL\OOP-LEARNING\OOP-LEARNING\CLASS\POINT2D\POINT2D\DEBUG\SOURCE.OBJ
/OUT:"D:\SCHOOL\OOP-LEARNING\OOP-LEARNING\CLASS\POINT2D\DEBUG\POINT2D.EXE" /INCREMENTAL /NOLOGO KERNEL32.LIB USER32.LIB GDI32.LIB WINSPOOL.LIB COMDLG32.LIB ADVAPI32.LIB SHELL32.LIB OLE32.LIB OLEAUT32.LIB UUID.LIB ODBC32.LIB ODBCCP32.LIB /MANIFEST /MANIFESTUAC:"level='asInvoker' uiAccess='false'" /manifest:embed /DEBUG:FASTLINK /PDB:"D:\SCHOOL\OOP-LEARNING\OOP-LEARNING\CLASS\POINT2D\DEBUG\POINT2D.PDB" /SUBSYSTEM:CONSOLE /TLBID:1 /DYNAMICBASE /NXCOMPAT /IMPLIB:"D:\SCHOOL\OOP-LEARNING\OOP-LEARNING\CLASS\POINT2D\DEBUG\POINT2D.LIB" /MACHINE:X86 DEBUG\POINT2D.OBJ
DEBUG\SOURCE.OBJ
