^D:\KY5\OOP ( MONDAY )\OOP-LEARNING\TRAINING\POINT2DLEARNING\POINT2DLEARNING\POINT2D.CPP|D:\KY5\OOP ( MONDAY )\OOP-LEARNING\TRAINING\POINT2DLEARNING\POINT2DLEARNING\SOURCE.CPP
D:\KY5\OOP ( MONDAY )\OOP-LEARNING\TRAINING\POINT2DLEARNING\POINT2DLEARNING\X64\DEBUG\VC142.PDB
D:\KY5\OOP ( MONDAY )\OOP-LEARNING\TRAINING\POINT2DLEARNING\POINT2DLEARNING\X64\DEBUG\VC142.IDB
D:\KY5\OOP ( MONDAY )\OOP-LEARNING\TRAINING\POINT2DLEARNING\POINT2DLEARNING\X64\DEBUG\SOURCE.OBJ
D:\KY5\OOP ( MONDAY )\OOP-LEARNING\TRAINING\POINT2DLEARNING\POINT2DLEARNING\X64\DEBUG\POINT2D.OBJ
^D:\KY5\OOP ( MONDAY )\OOP-LEARNING\TRAINING\POINT2DLEARNING\POINT2DLEARNING\POINT2D.CPP
D:\KY5\OOP ( MONDAY )\OOP-LEARNING\TRAINING\POINT2DLEARNING\POINT2DLEARNING\X64\DEBUG\VC142.PDB
^D:\KY5\OOP ( MONDAY )\OOP-LEARNING\TRAINING\POINT2DLEARNING\POINT2DLEARNING\SOURCE.CPP
D:\KY5\OOP ( MONDAY )\OOP-LEARNING\TRAINING\POINT2DLEARNING\POINT2DLEARNING\X64\DEBUG\VC142.PDB
D:\KY5\OOP ( MONDAY )\OOP-LEARNING\TRAINING\POINT2DLEARNING\POINT2DLEARNING\X64\DEBUG\VC142.IDB
D:\KY5\OOP ( MONDAY )\OOP-LEARNING\TRAINING\POINT2DLEARNING\POINT2DLEARNING\X64\DEBUG\SOURCE.OBJ
