^D:\SCHOOL\OOP-LEARNING\OOP-LEARNING\OVERLOADING\OVERLOADING\DEBUG\POINT2D.OBJ|D:\SCHOOL\OOP-LEARNING\OOP-LEARNING\OVERLOADING\OVERLOADING\DEBUG\SOURCE.OBJ
/OUT:"D:\SCHOOL\OOP-LEARNING\OOP-LEARNING\OVERLOADING\DEBUG\OVERLOADING.EXE" /INCREMENTAL /NOLOGO KERNEL32.LIB USER32.LIB GDI32.LIB WINSPOOL.LIB COMDLG32.LIB ADVAPI32.LIB SHELL32.LIB OLE32.LIB OLEAUT32.LIB UUID.LIB ODBC32.LIB ODBCCP32.LIB /MANIFEST /MANIFESTUAC:"level='asInvoker' uiAccess='false'" /manifest:embed /DEBUG:FASTLINK /PDB:"D:\SCHOOL\OOP-LEARNING\OOP-LEARNING\OVERLOADING\DEBUG\OVERLOADING.PDB" /SUBSYSTEM:CONSOLE /TLBID:1 /DYNAMICBASE /NXCOMPAT /IMPLIB:"D:\SCHOOL\OOP-LEARNING\OOP-LEARNING\OVERLOADING\DEBUG\OVERLOADING.LIB" /MACHINE:X86 DEBUG\POINT2D.OBJ
DEBUG\SOURCE.OBJ
